[gd_scene load_steps=3 format=2]

[ext_resource path="res://scripts/CameraControl.gd" type="Script" id=1]

[sub_resource type="CylinderMesh" id=1]
top_radius = 0.001
bottom_radius = 0.001
height = 0.3

[node name="CameraControl" type="Spatial"]
script = ExtResource( 1 )

[node name="CameraVertical" type="Spatial" parent="."]

[node name="CameraLookTarget" type="Spatial" parent="CameraVertical"]
transform = Transform( 1, 0, 0, 0, 1, 0, 0, 0, 1, 0, 0, 4.29214 )

[node name="CameraLookElevator" type="Spatial" parent="CameraVertical/CameraLookTarget"]

[node name="Camera" type="Camera" parent="CameraVertical/CameraLookTarget/CameraLookElevator"]
transform = Transform( 1, 0, 0, 0, -1.62921e-07, -1, 0, 1, -1.62921e-07, 0, 0, 0 )
current = true

[node name="MeshInstance" type="MeshInstance" parent="CameraVertical/CameraLookTarget"]
transform = Transform( 1, 0, 0, 0, -1.62921e-07, -1, 0, 1, -1.62921e-07, 0, 0, 0 )
mesh = SubResource( 1 )
material/0 = null
