[gd_scene load_steps=2 format=2]

[ext_resource path="res://scripts/PositionChooser.gd" type="Script" id=1]

[node name="position_chooser" type="Control"]
anchor_right = 1.0
anchor_bottom = 1.0
script = ExtResource( 1 )
__meta__ = {
"_edit_use_anchors_": false
}

[node name="Panel" type="Panel" parent="."]
anchor_right = 1.0
anchor_bottom = 1.0
margin_left = 10.0
margin_top = 10.0
margin_right = -10.0
margin_bottom = -10.0
__meta__ = {
"_edit_use_anchors_": false
}

[node name="Title" type="Label" parent="Panel"]
anchor_right = 1.0
anchor_bottom = 0.1
text = "Position Selector"
align = 1
valign = 1
autowrap = true
__meta__ = {
"_edit_use_anchors_": false
}

[node name="PlaceName" type="Label" parent="Panel"]
anchor_top = 0.1
anchor_right = 1.0
anchor_bottom = 0.2
text = "No place selected yet?"
align = 1
valign = 1
autowrap = true

[node name="Blurb" type="Label" parent="Panel"]
anchor_top = 0.2
anchor_right = 1.0
anchor_bottom = 0.9
margin_left = 10.0
margin_top = 10.0
margin_right = -10.0
margin_bottom = -10.0
text = "No blurb yet?"
autowrap = true

[node name="HBoxContainer" type="HBoxContainer" parent="Panel"]
anchor_top = 0.9
anchor_right = 1.0
anchor_bottom = 1.0
alignment = 1
__meta__ = {
"_edit_use_anchors_": false
}

[node name="Previous" type="Button" parent="Panel/HBoxContainer"]
margin_left = 431.0
margin_right = 514.0
margin_bottom = 58.0
text = "<  Previous"

[node name="Next" type="Button" parent="Panel/HBoxContainer"]
margin_left = 518.0
margin_right = 572.0
margin_bottom = 58.0
text = "Next >"
[connection signal="pressed" from="Panel/HBoxContainer/Previous" to="." method="previous"]
[connection signal="pressed" from="Panel/HBoxContainer/Next" to="." method="next"]
